Fuzzy Matching Addresses to Prevent Fraudulent Application - Andrea Perlato
…
# Use Fuzzy Matching
library(fuzzyjoin)
library(dplyr)

match_data <- stringdist_left_join(db_a, db_b,
              by = "zipstreet", ignore_case = TRUE,
              method = "jaccard",
              max_dist = 1,
              distance_col = "dist"
) %>%
group_by(zipstreet.x)

match_data

# A tibble: 25 x 5
# Groups:   zipstreet.x [3]
   name_a zipstreet.x        name_b zipstreet.y               dist
   <fct>  <fct>              <fct>  <fct>                    <dbl>
 1 Aldo   1204 Roma Street 8 Sara   1204 Roma Street 81     0     
 2 Aldo   1204 Roma Street 8 Serena 1204 Roma Street 8A     0     
 3 Aldo   1204 Roma Street 8 Silvia 1204 Roma Street 8B     0.0714
 4 Aldo   1204 Roma Street 8 Sonia  1204 Roma Street 8C     0.0714
 5 Aldo   1204 Roma Street 8 Sissi  1204 Venezia Street 10C 0.444 
 6 Andrea 1204 Roma Street 8 Sara   1204 Roma Street 81     0     
 7 Andrea 1204 Roma Street 8 Serena 1204 Roma Street 8A     0     
 8 Andrea 1204 Roma Street 8 Silvia 1204 Roma Street 8B     0.0714
 9 Andrea 1204 Roma Street 8 Sonia  1204 Roma Street 8C     0.0714
10 Andrea 1204 Roma Street 8 Sissi  1204 Venezia Street 10C 0.444 
# ... with 15 more rows
…
